fileName	priorPercent	priorWeight	alpha	l1_ratio	isCV	fit_intercept	scaleX	halfLife	method	freeCV
_priorPerct10_weight0.01__scaled__Jan-29_16-29PenaltyScaling	10	0.01	3.0	0.5	1	1	1	10	PenaltyScaling	0
_priorPerct10_weight0.01__scaled__Jan-29_16-29FeatureScaling	10	0.01	0.10000000000000001	0.5	1	1	1	10	FeatureScaling	0
_priorPerct20_weight0.01__scaled__Jan-29_16-30PenaltyScaling	20	0.01	3.0	0.5	1	1	1	10	PenaltyScaling	0
_priorPerct20_weight0.01__scaled__Jan-29_16-30FeatureScaling	20	0.01	0.10000000000000001	0.5	1	1	1	10	FeatureScaling	0
_priorPerct40_weight0.01__scaled__Jan-29_16-31PenaltyScaling	40	0.01	3.0	0.5	1	1	1	10	PenaltyScaling	0
